{
	"Export_System": "Version 1.0",
	"Properties": {
		"name": "????",
		"mail_direction": "????",
		"enabled": "????",
		"notes": "????",
		"scope": {
			"properties": {
				"type": "????",
				"constraint": "????",
				"scope": [{
					"items": "????"
				}]
			}
		},
		"rules": {
			"properties": {
				"type": "????",
				"points": "????",
				"entries": [{
					"items": {
						"properties": {
							"property": "????",
							"comparator": "????",
							"value": "????",
							"value_type": "????",
							"occurrence_option": "????",
							"occurrence": "????",
							"assigned_points": "????"
						}
					}
				}]
			}
		},
		"actions": [{
			"items": {
				"properties": {
					"type": "????",
					"position": "????",
					"contents": "????"
				}
			}
		}]
	}
}