25-10-2016 10:40:37.665 SelectCustomerData()
25-10-2016 10:40:38.198 SelectCustomerData() - ok
25-10-2016 10:40:38.202 SelectEPACustomers()
25-10-2016 10:40:38.317 SelectEPACustomers() - ok
25-10-2016 10:40:38.323 SelectLDAPCustomers()
25-10-2016 10:40:38.450 SelectLDAPCustomers() - ok
25-10-2016 10:40:38.460 Generating JSON
25-10-2016 10:41:59.472 SymantecID = 104761
25-10-2016 10:42:02.965 SymantecID = 108688
25-10-2016 10:42:05.295 SymantecID = 108690
25-10-2016 10:42:06.020      No data found. SearchCustomer()
25-10-2016 10:42:06.025 SymantecID = 108857
25-10-2016 10:42:06.757      No data found. SearchCustomer()
25-10-2016 10:42:06.761 SymantecID = 108896
25-10-2016 10:42:07.410      No data found. SearchCustomer()
25-10-2016 10:42:07.417 SymantecID = 108897
25-10-2016 10:42:08.066      No data found. SearchCustomer()
25-10-2016 10:42:08.069 SymantecID = 108900
25-10-2016 10:42:10.263 SymantecID = 108901
25-10-2016 10:42:10.959      No data found. SearchCustomer()
25-10-2016 10:42:10.963 SymantecID = 108971
25-10-2016 10:42:11.798      No data found. SearchCustomer()
25-10-2016 10:42:11.802 SymantecID = 108995
25-10-2016 10:42:12.493      No data found. SearchCustomer()
25-10-2016 10:42:12.498 SymantecID = 109049
25-10-2016 10:42:13.165      No data found. SearchCustomer()
25-10-2016 10:42:13.171 SymantecID = 109123
25-10-2016 10:42:15.410 SymantecID = 109211
25-10-2016 10:42:16.159      Customer data not found
25-10-2016 10:42:16.172 SearchCustomersResponse.SearchCustomer()
--------------------
System.Web.Services.Protocols.SoapHeaderException: An unexpected system error has occurred, please try again later. If the problem persists please contact your service provider support team quoting reference 1477384936
   at System.Web.Services.Protocols.SoapHttpClientProtocol.ReadResponse(SoapClientMessage message, WebResponse response, Stream responseStream, Boolean asyncCall)
   at System.Web.Services.Protocols.SoapHttpClientProtocol.Invoke(String methodName, Object[] parameters)
   at Symantec_Reader.ConfigService.SearchCustomers(SearchCustomersRequest SearchCustomersRequest) in C:\Udvikling\C#\VS2015\Symantec_Multi_Reader\Symantec_Multi_Reader\ConfigService.cs:line 7949
   at Symantec_Reader.Program.SymantecApi.SearchCustomer(Int32 resellerId, SearchType searchtype, Boolean getnonprovisioneddomainsusername, StateType statetype) in C:\Udvikling\C#\VS2015\Symantec_Multi_Reader\Symantec_Multi_Reader\Program.cs:line 1349

25-10-2016 10:42:16.176      No data found. SearchCustomer()
25-10-2016 10:42:16.181 SymantecID = 109230
25-10-2016 10:42:16.974      No data found. SearchCustomer()
25-10-2016 10:42:16.982 SymantecID = 109280
25-10-2016 10:42:21.840 SymantecID = 109282
25-10-2016 10:42:22.723      No data found. SearchCustomer()
25-10-2016 10:42:22.728 SymantecID = 109286
25-10-2016 10:42:23.446      No data found. SearchCustomer()
25-10-2016 10:42:23.452 SymantecID = 109287
25-10-2016 10:42:24.179      No data found. SearchCustomer()
25-10-2016 10:42:24.184 SymantecID = 109495
25-10-2016 10:42:24.875      Customer data not found
25-10-2016 10:42:24.886 SearchCustomersResponse.SearchCustomer()
--------------------
System.Web.Services.Protocols.SoapHeaderException: An unexpected system error has occurred, please try again later. If the problem persists please contact your service provider support team quoting reference 1477384945
   at System.Web.Services.Protocols.SoapHttpClientProtocol.ReadResponse(SoapClientMessage message, WebResponse response, Stream responseStream, Boolean asyncCall)
   at System.Web.Services.Protocols.SoapHttpClientProtocol.Invoke(String methodName, Object[] parameters)
   at Symantec_Reader.ConfigService.SearchCustomers(SearchCustomersRequest SearchCustomersRequest) in C:\Udvikling\C#\VS2015\Symantec_Multi_Reader\Symantec_Multi_Reader\ConfigService.cs:line 7949
   at Symantec_Reader.Program.SymantecApi.SearchCustomer(Int32 resellerId, SearchType searchtype, Boolean getnonprovisioneddomainsusername, StateType statetype) in C:\Udvikling\C#\VS2015\Symantec_Multi_Reader\Symantec_Multi_Reader\Program.cs:line 1349

25-10-2016 10:42:24.894      No data found. SearchCustomer()
25-10-2016 10:42:24.903 SymantecID = 109650
25-10-2016 10:42:27.347 SymantecID = 109651
25-10-2016 10:42:28.112      No data found. SearchCustomer()
25-10-2016 10:42:28.124 SymantecID = 109832
25-10-2016 10:42:28.846      No data found. SearchCustomer()
25-10-2016 10:42:28.853 SymantecID = 110010
25-10-2016 10:42:29.616      No data found. SearchCustomer()
25-10-2016 10:42:29.622 SymantecID = 110063
25-10-2016 10:42:30.383      No data found. SearchCustomer()
25-10-2016 10:42:30.391 SymantecID = 110220
25-10-2016 10:42:31.153      No data found. SearchCustomer()
25-10-2016 10:42:31.161 SymantecID = 110241
25-10-2016 10:42:31.961      No data found. SearchCustomer()
25-10-2016 10:42:31.968 SymantecID = 110246
25-10-2016 10:42:35.401 SymantecID = 110277
25-10-2016 10:42:36.148      Customer data not found
25-10-2016 10:42:36.155 SearchCustomersResponse.SearchCustomer()
--------------------
System.Web.Services.Protocols.SoapHeaderException: An unexpected system error has occurred, please try again later. If the problem persists please contact your service provider support team quoting reference 1477384956
   at System.Web.Services.Protocols.SoapHttpClientProtocol.ReadResponse(SoapClientMessage message, WebResponse response, Stream responseStream, Boolean asyncCall)
   at System.Web.Services.Protocols.SoapHttpClientProtocol.Invoke(String methodName, Object[] parameters)
   at Symantec_Reader.ConfigService.SearchCustomers(SearchCustomersRequest SearchCustomersRequest) in C:\Udvikling\C#\VS2015\Symantec_Multi_Reader\Symantec_Multi_Reader\ConfigService.cs:line 7949
   at Symantec_Reader.Program.SymantecApi.SearchCustomer(Int32 resellerId, SearchType searchtype, Boolean getnonprovisioneddomainsusername, StateType statetype) in C:\Udvikling\C#\VS2015\Symantec_Multi_Reader\Symantec_Multi_Reader\Program.cs:line 1349

25-10-2016 10:42:36.163      No data found. SearchCustomer()
25-10-2016 10:42:36.170 SymantecID = 110294
25-10-2016 10:42:36.937      No data found. SearchCustomer()
25-10-2016 10:42:36.947 SymantecID = 110303
25-10-2016 10:42:37.828      No data found. SearchCustomer()
25-10-2016 10:42:37.833 SymantecID = 110404
25-10-2016 10:42:38.552      No data found. SearchCustomer()
25-10-2016 10:42:38.563 SymantecID = 110421
25-10-2016 10:42:39.318      No data found. SearchCustomer()
25-10-2016 10:42:39.324 SymantecID = 110423
25-10-2016 10:42:41.819 SymantecID = 110428
25-10-2016 10:42:45.374 SymantecID = 110431
25-10-2016 10:42:46.172      No data found. SearchCustomer()
25-10-2016 10:42:46.189 SymantecID = 110481
25-10-2016 10:42:46.988      No data found. SearchCustomer()
25-10-2016 10:42:47.000 SymantecID = 110483
25-10-2016 10:42:47.828      No data found. SearchCustomer()
25-10-2016 10:42:47.835 SymantecID = 110495
25-10-2016 10:42:48.602      No data found. SearchCustomer()
25-10-2016 10:42:48.608 SymantecID = 110508
25-10-2016 10:42:49.430      No data found. SearchCustomer()
25-10-2016 10:42:49.438 SymantecID = 110569
25-10-2016 10:42:50.207      No data found. SearchCustomer()
25-10-2016 10:42:50.225 SymantecID = 110678
25-10-2016 10:42:51.010      No data found. SearchCustomer()
25-10-2016 10:42:51.018 SymantecID = 110781
25-10-2016 10:42:53.541 Accounts generated: 11
