21-10-2016 11:33:29.787 SelectCustomerData()
21-10-2016 11:33:29.973 SelectCustomerData() - ok
21-10-2016 11:33:29.976 SelectEPACustomers()
21-10-2016 11:33:30.020 SelectEPACustomers() - ok
21-10-2016 11:33:30.024 SelectLDAPCustomers()
21-10-2016 11:33:30.148 SelectLDAPCustomers() - ok
21-10-2016 11:33:30.157 Generating JSON
21-10-2016 11:33:30.160 SymantecID = 104761
21-10-2016 11:33:59.334 SymantecID = 108688
21-10-2016 11:34:04.589 SymantecID = 108690
21-10-2016 11:34:29.210 SymantecID = 108857
