21-10-2016 10:10:02.863 SelectCustomerData()
21-10-2016 10:10:03.045 SelectCustomerData() - ok
21-10-2016 10:10:03.050 SelectEPACustomers()
21-10-2016 10:10:03.100 SelectEPACustomers() - ok
21-10-2016 10:10:03.104 SelectLDAPCustomers()
21-10-2016 10:10:03.222 SelectLDAPCustomers() - ok
21-10-2016 10:10:03.228 Generating JSON
21-10-2016 10:10:03.231 SymantecID = 104761
21-10-2016 10:10:04.678 SymantecID = 108688
21-10-2016 10:10:05.373 SymantecID = 108690
21-10-2016 10:10:05.571 SymantecID = 108857
21-10-2016 10:10:05.779 SymantecID = 108896
21-10-2016 10:10:06.019 SymantecID = 108897
21-10-2016 10:10:06.228 SymantecID = 108900
21-10-2016 10:10:06.759 SymantecID = 108901
21-10-2016 10:10:07.019 SymantecID = 108971
21-10-2016 10:10:07.219 SymantecID = 108995
21-10-2016 10:10:07.412 SymantecID = 109049
21-10-2016 10:10:07.667 SymantecID = 109123
