21-10-2016 12:11:59.273 SelectCustomerData()
21-10-2016 12:11:59.496 SelectCustomerData() - ok
21-10-2016 12:11:59.500 SelectEPACustomers()
21-10-2016 12:11:59.547 SelectEPACustomers() - ok
21-10-2016 12:11:59.551 SelectLDAPCustomers()
21-10-2016 12:11:59.672 SelectLDAPCustomers() - ok
21-10-2016 12:11:59.679 Generating JSON
21-10-2016 12:11:59.684 SymantecID = 104761
21-10-2016 12:12:02.744 SymantecID = 108688
21-10-2016 12:12:03.288 SymantecID = 108690
21-10-2016 12:12:03.451 SymantecID = 108857
21-10-2016 12:12:03.674 SymantecID = 108896
21-10-2016 12:12:03.867 SymantecID = 108897
21-10-2016 12:12:04.087 SymantecID = 108900
21-10-2016 12:12:04.737 SymantecID = 108901
21-10-2016 12:12:04.933 SymantecID = 108971
21-10-2016 12:12:05.159 SymantecID = 108995
21-10-2016 12:12:05.330 SymantecID = 109049
21-10-2016 12:12:05.558 SymantecID = 109123
21-10-2016 12:12:06.209 SymantecID = 109211
