25-10-2016 09:59:18.982 SelectCustomerData()
25-10-2016 09:59:19.177 SelectCustomerData() - ok
25-10-2016 09:59:19.180 SelectEPACustomers()
25-10-2016 09:59:19.224 SelectEPACustomers() - ok
25-10-2016 09:59:19.228 SelectLDAPCustomers()
25-10-2016 09:59:19.350 SelectLDAPCustomers() - ok
25-10-2016 09:59:19.358 Generating JSON
