26-10-2016 11:11:38.378 SelectCustomerData()
26-10-2016 11:11:38.563 SelectCustomerData() - ok
26-10-2016 11:11:38.568 SelectEPACustomers()
26-10-2016 11:11:38.652 SelectEPACustomers() - ok
26-10-2016 11:11:38.677 SelectLDAPCustomers()
26-10-2016 11:11:38.825 SelectLDAPCustomers() - ok
26-10-2016 11:11:38.838 Generating JSON
26-10-2016 11:11:38.848 SymantecID = 104761
26-10-2016 11:11:43.890 Accounts generated: 2
