26-10-2016 12:26:53.061 SelectCustomerData()
26-10-2016 12:26:53.247 SelectCustomerData() - ok
26-10-2016 12:26:53.258 SelectEPACustomers()
26-10-2016 12:26:53.304 SelectEPACustomers() - ok
26-10-2016 12:26:53.307 SelectLDAPCustomers()
26-10-2016 12:26:53.420 SelectLDAPCustomers() - ok
26-10-2016 12:26:53.430 Generating JSON
26-10-2016 12:26:53.437 SymantecID = 104761
26-10-2016 12:26:57.237 Accounts generated: 2
