19-10-2016 13:43:04 CreateMYSQLCommection()
--------------------
System.ArgumentException: Could not open MySQL connection: MySql.Data.MySqlClient.MySqlException (0x80004005): Unable to connect to any of the specified MySQL hosts.
   at MySql.Data.MySqlClient.NativeDriver.Open()
   at MySql.Data.MySqlClient.Driver.Open()
   at MySql.Data.MySqlClient.Driver.Create(MySqlConnectionStringBuilder settings)
   at MySql.Data.MySqlClient.MySqlPool.CreateNewPooledConnection()
   at MySql.Data.MySqlClient.MySqlPool.GetPooledConnection()
   at MySql.Data.MySqlClient.MySqlPool.TryToGetDriver()
   at MySql.Data.MySqlClient.MySqlPool.GetConnection()
   at MySql.Data.MySqlClient.MySqlConnection.Open()
   at Symantec_Reader.mySqlConnectionInterface.OpenMySQLConnection() in C:\Udvikling\C#\VS2015\Symantec_Multi_Reader\Symantec_Multi_Reader\mySqlConnectionInterface.cs:line 42
   at Symantec_Reader.mySqlConnectionInterface.OpenMySQLConnection() in C:\Udvikling\C#\VS2015\Symantec_Multi_Reader\Symantec_Multi_Reader\mySqlConnectionInterface.cs:line 54
   at Symantec_Reader.Program.CreateMYSQLCommection() in C:\Udvikling\C#\VS2015\Symantec_Multi_Reader\Symantec_Multi_Reader\Program.cs:line 727

19-10-2016 13:43:04 ERROR - MySQL connection failed. Check that VPN is connected. application stopped.
Please check the log file for detailed information
Log files is placed under \Logs\<current data>.txt: Symantec Migration
