19-10-2016 02:47:28.348 SelectCustomerData()
19-10-2016 02:47:28.554 SelectCustomerData() - ok
19-10-2016 02:47:28.559 SelectEPACustomers()
19-10-2016 02:47:28.616 SelectEPACustomers() - ok
19-10-2016 02:47:28.621 SelectLDAPCustomers()
19-10-2016 02:47:28.738 SelectLDAPCustomers() - ok
19-10-2016 02:47:28.746 Generating JSON
19-10-2016 02:47:28.750 SymantecID = 104761
19-10-2016 02:47:29.963 SymantecID = 108688
19-10-2016 02:47:30.551 SymantecID = 108690
19-10-2016 02:47:30.864 SymantecID = 108857
19-10-2016 02:47:31.211 SymantecID = 108896
19-10-2016 02:47:31.549 SymantecID = 108897
19-10-2016 02:47:31.718 SymantecID = 108900
19-10-2016 02:47:32.423 SymantecID = 108901
19-10-2016 02:47:32.632 SymantecID = 108971
19-10-2016 02:47:32.791 SymantecID = 108995
19-10-2016 02:47:32.937 SymantecID = 109049
19-10-2016 02:47:33.117 SymantecID = 109123
