21-10-2016 12:15:19.770 SelectCustomerData()
21-10-2016 12:15:23.228 SelectCustomerData() - ok
21-10-2016 12:15:23.235 SelectEPACustomers()
21-10-2016 12:15:23.427 SelectEPACustomers() - ok
21-10-2016 12:15:23.469 SelectLDAPCustomers()
21-10-2016 12:15:23.621 SelectLDAPCustomers() - ok
21-10-2016 12:15:23.654 Generating JSON
21-10-2016 12:15:23.674 SymantecID = 104761
21-10-2016 12:15:28.993 SymantecID = 108688
21-10-2016 12:15:29.587 SymantecID = 108690
21-10-2016 12:15:29.852 SymantecID = 108857
21-10-2016 12:15:30.077 SymantecID = 108896
21-10-2016 12:15:30.383 SymantecID = 108897
21-10-2016 12:15:30.620 SymantecID = 108900
21-10-2016 12:15:31.421 SymantecID = 108901
21-10-2016 12:15:31.690 SymantecID = 108971
21-10-2016 12:15:31.832 SymantecID = 108995
21-10-2016 12:15:32.004 SymantecID = 109049
21-10-2016 12:15:32.174 SymantecID = 109123
21-10-2016 12:15:32.837 SymantecID = 109211
